<?xml version="1.0" encoding="UTF-8" standalone="no"?>
<!-- Created with Inkscape (http://www.inkscape.org/) -->

<svg
   width="800.00159"
   height="144.59401"
   viewBox="0 0 211.66708 38.257166"
   version="1.1"
   id="svg230"
   inkscape:version="1.1.1 (3bf5ae0d25, 2021-09-20)"
   sodipodi:docname="tales01.svg"
   xmlns:inkscape="http://www.inkscape.org/namespaces/inkscape"
   xmlns:sodipodi="http://sodipodi.sourceforge.net/DTD/sodipodi-0.dtd"
   xmlns="http://www.w3.org/2000/svg"
   xmlns:svg="http://www.w3.org/2000/svg">
  <sodipodi:namedview
     id="namedview232"
     pagecolor="#ffffff"
     bordercolor="#666666"
     borderopacity="1.0"
     inkscape:pageshadow="2"
     inkscape:pageopacity="0.0"
     inkscape:pagecheckerboard="0"
     inkscape:document-units="mm"
     showgrid="false"
     units="px"
     inkscape:snap-bbox="true"
     inkscape:bbox-paths="true"
     inkscape:snap-global="true"
     inkscape:snap-page="true"
     fit-margin-top="0"
     fit-margin-left="0"
     fit-margin-right="0"
     fit-margin-bottom="0"
     inkscape:zoom="1.3049673"
     inkscape:cx="388.51549"
     inkscape:cy="179.69799"
     inkscape:window-width="1920"
     inkscape:window-height="1019"
     inkscape:window-x="0"
     inkscape:window-y="32"
     inkscape:window-maximized="1"
     inkscape:current-layer="layer1"
     inkscape:snap-text-baseline="true" />
  <defs
     id="defs227" />
  <g
     inkscape:label="Layer 1"
     inkscape:groupmode="layer"
     id="layer1"
     transform="translate(-1.9175028,-78.857689)">
    <g
       aria-label="Jade heads North"
       id="text786"
       style="font-size:23.6447px;line-height:1.25;stroke-width:0.316669">
      <path
         d="m 1.9175028,117.11485 c 1.8679332,-0.4256 2.5536302,-0.99308 2.8137222,-2.76643 0.1418683,-0.94579 1.4423281,-16.527662 1.4423281,-19.601476 v -9.339666 c 0,-3.097459 0.023645,-4.823524 2.6482091,-5.225484 v -0.283737 c -0.070934,0 -2.6482091,0.425605 -3.5230639,0.425605 -0.9930784,0 -1.5132623,0 -3.3811955,-0.425605 v 0.283737 c 2.6245644,0.40196 2.6482091,2.080735 2.6482091,5.178194 v 26.292932 c 0,3.09746 -0.023645,4.77624 -2.6482091,5.1782 z"
         style="font-family:Cantique;-inkscape-font-specification:Cantique"
         id="path14980" />
      <path
         d="m 13.00684,98.08085 c 1.395038,0 3.85409,-1.74971 3.972313,-2.080736 0,0.520184 0,2.080736 1.34775,2.080736 1.726064,0 3.239327,-1.70242 3.310261,-1.70242 l -0.378316,-0.425605 c -0.189158,0.212802 -1.371394,0.80392 -1.796999,0.80392 -0.567473,0 -0.945789,-0.543829 -0.945789,-2.979235 v -3.546709 c 0,-2.459051 -1.631486,-3.192037 -3.499419,-3.192037 -2.529985,0 -4.539787,1.182236 -4.539787,2.577275 l 1.607841,1.064012 c 0,-2.033446 1.134947,-3.192038 2.19896,-3.192038 1.395038,0 2.695498,1.205881 2.695498,3.381196 l -2.080735,0.591118 c -3.475775,0.993078 -4.492498,2.128025 -4.492498,3.995958 0,1.891578 1.182236,2.624565 2.60092,2.624565 z m 1.347749,-1.324105 c -1.442328,0.04729 -2.55363,-0.496539 -2.55363,-2.317183 0,-1.418683 1.324104,-2.033446 2.790077,-2.435406 l 2.388117,-0.662053 c 0,0 0,0.425605 0,0.993079 v 2.861011 c 0,0.425605 -1.773354,1.536907 -2.624564,1.560552 z"
         style="font-family:Cantique;-inkscape-font-specification:Cantique"
         id="path14982" />
      <path
         d="m 28.115778,98.08085 c 1.087658,0 2.175315,-0.307382 3.121104,-0.993079 0.283736,-0.212802 0.567473,-0.449249 0.80392,-0.709341 v 0.236447 c 0,0.141868 0,1.465973 1.34775,1.465973 1.726065,0 3.239327,-1.70242 3.310261,-1.70242 l -0.378316,-0.425605 c -0.189157,0.212802 -1.300459,0.780275 -1.749709,0.80392 -0.969434,0 -0.945789,-4.326984 -0.945789,-4.326984 v -9.00864 c 0,-0.40196 0,-2.340828 0.236447,-3.239327 h -0.685697 c -0.945789,0.85121 -1.655131,1.229525 -2.364472,1.229525 v 0.283737 c 1.205881,0.425605 1.205881,0.732986 1.205881,3.712222 v 3.333906 c -1.040368,-1.087658 -2.482696,-1.678776 -3.972314,-1.678776 -1.064013,0 -2.175315,0.307382 -3.121103,0.993079 -1.465973,1.040368 -2.317183,2.790077 -2.317183,4.563431 0,1.111302 0.331026,2.222605 1.016723,3.168393 1.016723,1.465973 2.742788,2.293539 4.492497,2.293539 z m 1.087658,-0.969434 c -1.560552,0 -3.286617,-1.087657 -4.185117,-2.411762 -0.662052,-0.922144 -1.087657,-2.246249 -1.087657,-3.45213 0,-1.134946 0.354671,-2.198959 1.205881,-2.837366 0.472895,-0.354671 1.040368,-0.49654 1.607841,-0.49654 1.560552,0 3.286617,1.087658 4.208761,2.411762 0.614763,0.945789 1.040368,2.317183 1.040368,3.45213 0,1.418683 -0.44925,2.269893 -1.205881,2.837367 -0.472894,0.354671 -1.016723,0.496539 -1.584196,0.496539 z"
         style="font-family:Cantique;-inkscape-font-specification:Cantique"
         id="path14984" />
      <path
         d="m 43.17739,98.08085 c 1.087657,0 2.175315,-0.307382 3.121104,-0.993079 0.85121,-0.709341 0.945789,-0.874855 1.158591,-1.30046 L 46.960546,95.47993 c -0.260092,0.378316 -0.44925,0.709342 -1.111302,1.134947 -0.472895,0.331026 -1.016723,0.472894 -1.607841,0.472894 -1.536907,0 -3.262972,-1.064012 -4.161472,-2.388117 -0.662052,-0.922144 -1.087657,-2.198959 -1.087657,-3.40484 0,-1.087657 0.354671,-2.128025 1.205881,-2.766433 0.472894,-0.354671 1.040368,-0.496539 1.607841,-0.496539 1.560552,0 3.286617,1.087657 4.208761,2.411762 l -5.320063,3.759511 0.165513,0.212802 7.25893,-4.7053 -0.307381,-0.472894 -0.40196,0.283737 c -0.85121,-1.726065 -2.411762,-2.459052 -4.019603,-2.459052 -1.182237,0 -2.411762,0.401961 -3.404841,1.111302 -1.465973,1.040368 -2.317183,2.742788 -2.317183,4.492498 0,1.087657 0.331027,2.175315 1.016724,3.121103 1.016723,1.465973 2.742788,2.293539 4.492497,2.293539 z"
         style="font-family:Cantique;-inkscape-font-specification:Cantique"
         id="path14986" />
      <path
         d="m 56.536639,97.844402 c 1.087657,-0.307381 1.986157,-0.425605 2.813722,-0.425605 1.087657,0 2.057091,0.189158 3.144748,0.425605 v -0.283736 c -1.678775,-0.331026 -1.70242,-1.584197 -1.70242,-4.587077 0,-0.732986 0.141869,-5.272773 3.830446,-5.272773 1.347749,0 2.364472,1.30046 2.364472,3.286617 v 1.395038 c 0,3.097459 0.04729,4.847169 -1.70242,5.178195 v 0.283736 c 1.016723,-0.35467 1.867933,-0.472894 2.600919,-0.472894 1.371394,0 2.364473,0.40196 3.357551,0.472894 v -0.283736 c -2.55363,-0.378316 -2.648209,-2.033447 -2.648209,-4.965392 v -2.033447 c 0,-2.766432 -1.773354,-3.523063 -3.381195,-3.523063 -2.671854,0 -3.90138,2.033446 -4.445208,3.688577 V 80.181794 h -0.44925 c -1.064013,0.80392 -2.198959,1.229525 -3.783156,1.229525 v 0.283737 c 2.435407,0.378316 2.60092,0.496539 2.624564,3.735866 l 0.02365,6.951549 c 0,3.097459 -0.02365,4.776234 -2.648209,5.178195 z"
         style="font-family:Cantique;-inkscape-font-specification:Cantique"
         id="path14988" />
      <path
         d="m 78.147891,98.08085 c 1.087657,0 2.175315,-0.307382 3.121104,-0.993079 0.85121,-0.709341 0.945789,-0.874855 1.158591,-1.30046 L 81.931047,95.47993 c -0.260092,0.378316 -0.44925,0.709342 -1.111302,1.134947 -0.472895,0.331026 -1.016723,0.472894 -1.607841,0.472894 -1.536907,0 -3.262972,-1.064012 -4.161472,-2.388117 -0.662052,-0.922144 -1.087657,-2.198959 -1.087657,-3.40484 0,-1.087657 0.354671,-2.128025 1.205881,-2.766433 0.472894,-0.354671 1.040368,-0.496539 1.607841,-0.496539 1.560552,0 3.286617,1.087657 4.208761,2.411762 l -5.320063,3.759511 0.165513,0.212802 7.25893,-4.7053 -0.307381,-0.472894 -0.40196,0.283737 c -0.85121,-1.726065 -2.411762,-2.459052 -4.019603,-2.459052 -1.182237,0 -2.411762,0.401961 -3.404841,1.111302 -1.465973,1.040368 -2.317183,2.742788 -2.317183,4.492498 0,1.087657 0.331027,2.175315 1.016723,3.121103 1.016724,1.465973 2.742788,2.293539 4.492498,2.293539 z"
         style="font-family:Cantique;-inkscape-font-specification:Cantique"
         id="path14990" />
      <path
         d="m 87.936804,98.08085 c 1.395038,0 3.85409,-1.74971 3.972313,-2.080736 0,0.520184 0,2.080736 1.34775,2.080736 1.726064,0 3.239327,-1.70242 3.310261,-1.70242 l -0.378316,-0.425605 c -0.189157,0.212802 -1.371394,0.80392 -1.796999,0.80392 -0.567473,0 -0.945789,-0.543829 -0.945789,-2.979235 v -3.546709 c 0,-2.459051 -1.631486,-3.192037 -3.499419,-3.192037 -2.529985,0 -4.539787,1.182236 -4.539787,2.577275 l 1.607841,1.064012 c 0,-2.033446 1.134947,-3.192038 2.19896,-3.192038 1.395038,0 2.695498,1.205881 2.695498,3.381196 l -2.080735,0.591118 c -3.475775,0.993078 -4.492498,2.128025 -4.492498,3.995958 0,1.891578 1.182236,2.624565 2.60092,2.624565 z m 1.347749,-1.324105 c -1.442328,0.04729 -2.55363,-0.496539 -2.55363,-2.317183 0,-1.418683 1.324104,-2.033446 2.790077,-2.435406 l 2.388117,-0.662053 c 0,0 0,0.425605 0,0.993079 v 2.861011 c 0,0.425605 -1.773354,1.536907 -2.624564,1.560552 z"
         style="font-family:Cantique;-inkscape-font-specification:Cantique"
         id="path14992" />
      <path
         d="m 103.04574,98.08085 c 1.08766,0 2.17532,-0.307382 3.12111,-0.993079 0.28373,-0.212802 0.56747,-0.449249 0.80392,-0.709341 v 0.236447 c 0,0.141868 0,1.465973 1.34775,1.465973 1.72606,0 3.23932,-1.70242 3.31026,-1.70242 l -0.37832,-0.425605 c -0.18916,0.212802 -1.30046,0.780275 -1.74971,0.80392 -0.96943,0 -0.94579,-4.326984 -0.94579,-4.326984 v -9.00864 c 0,-0.40196 0,-2.340828 0.23645,-3.239327 h -0.6857 c -0.94579,0.85121 -1.65513,1.229525 -2.36447,1.229525 v 0.283737 c 1.20588,0.425605 1.20588,0.732986 1.20588,3.712222 v 3.333906 c -1.04037,-1.087658 -2.48269,-1.678776 -3.97231,-1.678776 -1.06401,0 -2.17532,0.307382 -3.121105,0.993079 -1.465973,1.040368 -2.317183,2.790077 -2.317183,4.563431 0,1.111302 0.331026,2.222605 1.016723,3.168393 1.016723,1.465973 2.742785,2.293539 4.492495,2.293539 z m 1.08766,-0.969434 c -1.56055,0 -3.28662,-1.087657 -4.185117,-2.411762 -0.662052,-0.922144 -1.087657,-2.246249 -1.087657,-3.45213 0,-1.134946 0.354671,-2.198959 1.205884,-2.837366 0.47289,-0.354671 1.04036,-0.49654 1.60784,-0.49654 1.56055,0 3.28661,1.087658 4.20876,2.411762 0.61476,0.945789 1.04037,2.317183 1.04037,3.45213 0,1.418683 -0.44925,2.269893 -1.20588,2.837367 -0.4729,0.354671 -1.01673,0.496539 -1.5842,0.496539 z"
         style="font-family:Cantique;-inkscape-font-specification:Cantique"
         id="path14994" />
      <path
         d="m 116.99609,98.104494 c 2.43541,0 4.98904,-1.182236 4.98904,-3.499419 0,-2.577275 -2.36447,-2.766432 -4.06689,-3.428485 -2.36448,-0.874854 -2.81373,-1.205881 -2.81373,-2.080735 0,-0.614763 0.63841,-1.655131 2.45906,-1.655131 1.06401,0 2.50634,0.922144 2.50634,2.95559 l 1.60784,-1.064012 c -0.61477,-1.607841 -2.45905,-2.293538 -4.0669,-2.293538 -1.7497,0 -3.68857,1.040367 -3.68857,2.979235 0,1.796999 2.0098,2.648209 3.49942,3.121103 0.47289,0.141869 3.05017,0.543829 3.05017,2.080736 0,1.796999 -1.86794,2.482696 -2.93195,2.482696 -1.5842,0 -3.94867,-1.536907 -4.09054,-2.364472 V 97.6316 c 0.94579,0 2.41177,0.472894 3.54671,0.472894 z"
         style="font-family:Cantique;-inkscape-font-specification:Cantique"
         id="path14996" />
      <path
         d="m 132.45966,97.915337 c 0.0709,0 1.93887,-0.425605 2.81372,-0.425605 0.99308,0 0.80392,0 2.67186,0.425605 V 97.6316 c -1.1586,-0.165513 -1.5842,-0.520184 -1.5842,-1.064013 0,-0.709341 0.70934,-1.749709 1.46597,-3.168393 l 6.31314,-12.602637 9.59976,17.11878 h 1.18224 l 6.9279,-13.099177 c 1.27682,-2.317183 2.29354,-4.35063 4.9181,-4.75259 v -0.283737 c -0.0709,0 -1.93886,0.425605 -2.81372,0.425605 -0.99308,0 -0.80392,0 -2.67185,-0.425605 v 0.283737 c 1.15859,0.165513 1.58419,0.591118 1.58419,1.229526 0,0.80392 -0.70934,1.962512 -1.46597,3.381195 l -6.59688,12.508059 -10.19087,-18.324661 -7.23529,14.399637 c -1.27681,2.317183 -2.29354,3.972314 -4.9181,4.374274 z"
         style="font-family:Cantique;-inkscape-font-specification:Cantique"
         id="path14998" />
      <path
         d="m 169.3927,98.08085 c 1.08766,0 2.17532,-0.307382 3.12111,-0.993079 1.46597,-1.040368 2.29354,-2.790077 2.29354,-4.587076 0,-1.087657 -0.30739,-2.198959 -0.99308,-3.144748 -1.04037,-1.465973 -2.74279,-2.293539 -4.46886,-2.293539 -1.08765,0 -2.17531,0.307382 -3.14474,0.993079 -1.46598,1.040368 -2.31719,2.790077 -2.31719,4.563431 0,1.111302 0.33103,2.222605 1.01673,3.168393 1.01672,1.465973 2.74278,2.293539 4.49249,2.293539 z m 1.08766,-0.969434 c -1.56055,0 -3.28662,-1.087657 -4.18511,-2.411762 -0.66206,-0.922144 -1.08766,-2.246249 -1.08766,-3.45213 0,-1.134946 0.35467,-2.198959 1.20588,-2.837366 0.47289,-0.354671 1.04037,-0.49654 1.60784,-0.49654 1.56055,0 3.28662,1.087658 4.20876,2.411762 0.63841,0.969434 1.06401,2.269894 1.06401,3.475775 0,1.134946 -0.35467,2.175314 -1.22952,2.813722 -0.4729,0.354671 -1.01673,0.496539 -1.5842,0.496539 z"
         style="font-family:Cantique;-inkscape-font-specification:Cantique"
         id="path15000" />
      <path
         d="m 176.98264,97.844402 c 1.86793,-0.425605 2.38812,-0.425605 3.38119,-0.425605 0.87486,0 2.50634,0.425605 2.57728,0.425605 v -0.283736 c -1.67878,-0.331026 -1.70242,-2.766433 -1.70242,-4.516143 0,-0.40196 0.0709,-5.343707 3.61764,-5.343707 1.06401,0 1.86793,0.732986 1.86793,2.766433 l 1.60785,-1.064013 c 0,-1.395039 -1.77336,-2.364472 -3.3812,-2.364472 -2.79008,0 -3.73587,3.097458 -3.73587,4.776234 v -4.30334 h -0.44925 c -1.06401,0.803921 -2.19896,1.229526 -3.78315,1.229526 v 0.283736 c 2.57727,0.401961 2.64821,0.378316 2.64821,3.357551 0,3.097459 -0.0237,4.776234 -2.64821,5.178195 z"
         style="font-family:Cantique;-inkscape-font-specification:Cantique"
         id="path15002" />
      <path
         d="m 195.3782,97.962626 c 1.51326,0 2.26989,-1.584196 2.26989,-2.624564 h -0.23644 c 0,1.324104 -1.01673,1.938867 -2.0098,1.938867 -1.65513,0 -1.60785,-1.915223 -1.60785,-2.837367 v -6.573233 h 3.26298 V 87.062408 H 193.794 c 0,-0.685697 0.0236,-2.10438 0.23645,-2.861011 h -0.6857 c 0,2.719143 -2.19895,3.381195 -3.78315,3.381195 v 0.283737 h 2.62456 v 6.644167 c 0,2.222604 0.94579,3.45213 3.19204,3.45213 z"
         style="font-family:Cantique;-inkscape-font-specification:Cantique"
         id="path15004" />
      <path
         d="m 198.87757,97.844402 c 1.08765,-0.307381 1.98615,-0.425605 2.81372,-0.425605 1.08766,0 2.05709,0.189158 3.14475,0.425605 v -0.283736 c -1.67878,-0.331026 -1.70242,-1.584197 -1.70242,-4.587077 0,-0.732986 0.14186,-5.272773 3.83044,-5.272773 1.34775,0 2.36447,1.30046 2.36447,3.286617 v 1.395038 c 0,3.097459 0.0473,4.847169 -1.70242,5.178195 v 0.283736 c 1.01673,-0.35467 1.86794,-0.472894 2.60092,-0.472894 1.3714,0 2.36448,0.40196 3.35755,0.472894 v -0.283736 c -2.55363,-0.378316 -2.6482,-2.033447 -2.6482,-4.965392 v -2.033447 c 0,-2.766432 -1.77336,-3.523063 -3.3812,-3.523063 -2.67185,0 -3.90138,2.033446 -4.44521,3.688577 V 80.181794 h -0.44925 c -1.06401,0.80392 -2.19896,1.229525 -3.78315,1.229525 v 0.283737 c 2.4354,0.378316 2.60092,0.496539 2.62456,3.735866 l 0.0237,6.951549 c 0,3.097459 -0.0237,4.776234 -2.64821,5.178195 z"
         style="font-family:Cantique;-inkscape-font-specification:Cantique"
         id="path15006" />
    </g>
  </g>
</svg>
