<?xml version="1.0" encoding="UTF-8" standalone="no"?>
<!-- Created with Inkscape (http://www.inkscape.org/) -->

<svg
   width="800.00055"
   height="109.99686"
   viewBox="0 0 211.66681 29.103338"
   version="1.1"
   id="svg23322"
   inkscape:version="1.1.1 (3bf5ae0d25, 2021-09-20)"
   sodipodi:docname="tales02.svg"
   xmlns:inkscape="http://www.inkscape.org/namespaces/inkscape"
   xmlns:sodipodi="http://sodipodi.sourceforge.net/DTD/sodipodi-0.dtd"
   xmlns="http://www.w3.org/2000/svg"
   xmlns:svg="http://www.w3.org/2000/svg">
  <sodipodi:namedview
     id="namedview23324"
     pagecolor="#ffffff"
     bordercolor="#666666"
     borderopacity="1.0"
     inkscape:pageshadow="2"
     inkscape:pageopacity="0.0"
     inkscape:pagecheckerboard="0"
     inkscape:document-units="mm"
     showgrid="false"
     units="px"
     inkscape:snap-page="true"
     inkscape:snap-bbox="true"
     inkscape:snap-text-baseline="true"
     fit-margin-top="0"
     fit-margin-left="0"
     fit-margin-right="0"
     fit-margin-bottom="0"
     inkscape:zoom="0.68637476"
     inkscape:cx="364.23251"
     inkscape:cy="311.05456"
     inkscape:window-width="1920"
     inkscape:window-height="1019"
     inkscape:window-x="0"
     inkscape:window-y="32"
     inkscape:window-maximized="1"
     inkscape:current-layer="layer1" />
  <defs
     id="defs23319" />
  <g
     inkscape:label="Layer 1"
     inkscape:groupmode="layer"
     id="layer1"
     transform="translate(-1.3831195,-96.933365)">
    <g
       aria-label="Welcome to University"
       id="text25726"
       style="font-size:18.4315px;line-height:1.25;stroke-width:0.460785">
      <path
         d="M 15.704395,111.80759 23.169152,96.933365 H 1.3831195 l 8.4231952,14.874225 2.7831563,-5.52945 z M 10.340828,109.98287 3.2447009,97.338858 h 4.2761079 l 4.8659162,8.589082 z m 2.801588,-5.52945 -3.9996352,-7.114562 7.5753462,0.01843 z m 3.096492,5.52945 -2.912177,-5.19769 3.741595,-7.446322 5.547881,0.01843 z"
         style="font-family:Cantique;-inkscape-font-specification:Cantique"
         id="path28964" />
      <path
         d="m 26.118167,111.16248 c 0.847849,0 1.695697,-0.23961 2.432957,-0.77412 0.663534,-0.55294 0.73726,-0.68197 0.903144,-1.01373 l -0.387062,-0.23961 c -0.202746,0.2949 -0.350198,0.55294 -0.86628,0.88471 -0.36863,0.25804 -0.792554,0.36863 -1.253342,0.36863 -1.198047,0 -2.543547,-0.82942 -3.243944,-1.86158 -0.516082,-0.71883 -0.847849,-1.71413 -0.847849,-2.65414 0,-0.84785 0.276473,-1.65883 0.940007,-2.15648 0.36863,-0.27648 0.810986,-0.38706 1.253342,-0.38706 1.216479,0 2.561978,0.84784 3.280806,1.88001 l -4.147087,2.93061 0.129021,0.16588 5.65847,-3.66787 -0.23961,-0.36863 -0.313335,0.22118 c -0.663534,-1.3455 -1.880013,-1.91688 -3.133355,-1.91688 -0.921575,0 -1.880013,0.31334 -2.654136,0.86628 -1.142753,0.81099 -1.806287,2.13806 -1.806287,3.50199 0,0.84785 0.258041,1.6957 0.792555,2.43296 0.792554,1.14275 2.138054,1.78785 3.501985,1.78785 z"
         style="font-family:Cantique;-inkscape-font-specification:Cantique"
         id="path28966" />
      <path
         d="m 30.726017,110.97817 c 1.050596,-0.25804 1.861582,-0.3502 2.525116,-0.3502 1.069027,0 1.84315,0.22118 2.856882,0.3502 v -0.22118 c -1.990602,-0.2949 -2.082759,-1.41923 -2.082759,-3.99964 v -7.022397 c 0,-0.313335 0,-1.824718 0.184315,-2.525115 h -0.534514 c -0.829417,0.626671 -1.714129,0.958438 -2.94904,0.958438 v 0.221178 c 2.009034,0.313335 2.045897,0.571376 2.045897,2.893746 v 5.52945 c 0,2.41453 0,3.631 -2.045897,3.94434 z"
         style="font-family:Cantique;-inkscape-font-specification:Cantique"
         id="path28968" />
      <path
         d="m 41.674291,111.16248 c 0.847849,0 1.695698,-0.23961 2.432958,-0.77412 0.663534,-0.55294 0.73726,-0.68197 0.903143,-1.01373 l -0.387061,-0.23961 c -0.202747,0.2949 -0.350199,0.55294 -0.866281,0.88471 -0.36863,0.25804 -0.792554,0.36863 -1.253342,0.36863 -1.198047,0 -2.543547,-0.82942 -3.243944,-1.86158 -0.516082,-0.71883 -0.847849,-1.71413 -0.847849,-2.65414 0,-0.84785 0.276473,-1.65883 0.940007,-2.15648 0.36863,-0.27648 0.810986,-0.38706 1.253342,-0.38706 1.216479,0 2.561978,0.84784 3.280807,1.88001 l 1.087458,-0.71883 c -0.663534,-1.3455 -1.880013,-1.91688 -3.133355,-1.91688 -0.921575,0 -1.880013,0.31334 -2.654136,0.86628 -1.142753,0.81099 -1.806287,2.13806 -1.806287,3.50199 0,0.84785 0.258041,1.6957 0.792555,2.43296 0.792554,1.14275 2.138054,1.78785 3.501985,1.78785 z"
         style="font-family:Cantique;-inkscape-font-specification:Cantique"
         id="path28970" />
      <path
         d="m 51.24022,111.16248 c 0.847849,0 1.695698,-0.23961 2.432958,-0.77412 1.142753,-0.81099 1.787856,-2.17492 1.787856,-3.57571 0,-0.84785 -0.23961,-1.71413 -0.774123,-2.45139 -0.810986,-1.14275 -2.138054,-1.78786 -3.483554,-1.78786 -0.847849,0 -1.695697,0.23961 -2.451389,0.77413 -1.142753,0.81098 -1.806287,2.17491 -1.806287,3.55728 0,0.86628 0.258041,1.73256 0.792555,2.46982 0.792554,1.14275 2.138054,1.78785 3.501984,1.78785 z m 0.847849,-0.75569 c -1.216479,0 -2.561978,-0.84785 -3.262375,-1.88001 -0.516082,-0.71883 -0.847849,-1.75099 -0.847849,-2.691 0,-0.88471 0.276473,-1.71413 0.940007,-2.21178 0.36863,-0.27647 0.810986,-0.38706 1.253342,-0.38706 1.216478,0 2.561978,0.84785 3.280806,1.88001 0.497651,0.75569 0.829418,1.76943 0.829418,2.70943 0,0.88471 -0.276473,1.6957 -0.958438,2.19335 -0.36863,0.27647 -0.792555,0.38706 -1.234911,0.38706 z"
         style="font-family:Cantique;-inkscape-font-specification:Cantique"
         id="path28972" />
      <path
         d="m 57.156718,110.97817 c 1.456088,-0.33177 1.861581,-0.33177 2.635704,-0.33177 0.681965,0 1.953739,0.33177 2.009033,0.33177 v -0.22118 c -1.290205,-0.25804 -1.327068,-1.21648 -1.327068,-3.50198 0,-0.0369 -0.01843,-4.16552 3.004335,-4.16552 0.976869,0 1.437657,0.9953 1.456088,2.50668 v 1.12432 c 0,2.41453 0.01843,3.59414 -1.511383,4.0365 v 0.22118 c 1.456089,-0.33177 1.308637,-0.33177 2.08276,-0.33177 0.681965,0 1.953739,0.33177 2.009033,0.33177 v -0.22118 c -1.290205,-0.25804 -1.327068,-1.21648 -1.327068,-3.50198 0,-0.0369 0,-4.16552 3.004335,-4.16552 1.013732,0 1.456088,0.9953 1.456088,2.54354 v 1.08746 c 0,2.41453 0.03686,3.77846 -1.327068,4.0365 v 0.22118 c 1.456089,-0.33177 1.382363,-0.33177 1.898445,-0.33177 0.681965,0 2.690999,0.33177 2.746293,0.33177 v -0.22118 c -1.990602,-0.2949 -2.064328,-1.58511 -2.064328,-3.87061 v -1.58511 c 0,-2.15649 -1.382362,-2.72787 -2.635704,-2.72787 -2.08276,0 -2.672568,1.56668 -3.096492,2.85689 0.12902,-2.19335 -1.327068,-2.85689 -2.617273,-2.85689 -2.08276,0 -2.672568,1.56668 -3.096492,2.85689 v -2.50669 h -0.350199 c -0.829417,0.62667 -1.714129,0.95844 -2.949039,0.95844 v 0.22118 c 2.009033,0.31333 2.064327,0.2949 2.064327,2.61727 0,2.41453 -0.01843,3.72316 -2.064327,4.0365 z"
         style="font-family:Cantique;-inkscape-font-specification:Cantique"
         id="path28974" />
      <path
         d="m 79.348208,111.16248 c 0.847849,0 1.695698,-0.23961 2.432958,-0.77412 0.663534,-0.55294 0.73726,-0.68197 0.903143,-1.01373 l -0.387061,-0.23961 c -0.202747,0.2949 -0.350199,0.55294 -0.866281,0.88471 -0.36863,0.25804 -0.792554,0.36863 -1.253341,0.36863 -1.198048,0 -2.543547,-0.82942 -3.243944,-1.86158 -0.516082,-0.71883 -0.847849,-1.71413 -0.847849,-2.65414 0,-0.84785 0.276472,-1.65883 0.940006,-2.15648 0.36863,-0.27648 0.810986,-0.38706 1.253342,-0.38706 1.216479,0 2.561979,0.84784 3.280807,1.88001 l -4.147087,2.93061 0.12902,0.16588 5.65847,-3.66787 -0.239609,-0.36863 -0.313336,0.22118 c -0.663534,-1.3455 -1.880012,-1.91688 -3.133354,-1.91688 -0.921575,0 -1.880013,0.31334 -2.654136,0.86628 -1.142753,0.81099 -1.806287,2.13806 -1.806287,3.50199 0,0.84785 0.258041,1.6957 0.792554,2.43296 0.792555,1.14275 2.138054,1.78785 3.501985,1.78785 z"
         style="font-family:Cantique;-inkscape-font-specification:Cantique"
         id="path28976" />
      <path
         d="m 93.558881,111.07033 c 1.179616,0 1.769424,-1.23491 1.769424,-2.0459 H 95.14399 c 0,1.03216 -0.792555,1.51138 -1.566678,1.51138 -1.290205,0 -1.253342,-1.49295 -1.253342,-2.21178 v -5.12395 h 2.543547 V 102.5734 H 92.32397 c 0,-0.53451 0.01843,-1.6404 0.184315,-2.23021 h -0.534513 c 0,2.11963 -1.71413,2.63571 -2.94904,2.63571 v 0.22118 h 2.045896 v 5.17925 c 0,1.73256 0.73726,2.691 2.488253,2.691 z"
         style="font-family:Cantique;-inkscape-font-specification:Cantique"
         id="path28978" />
      <path
         d="m 101.09732,111.16248 c 0.84785,0 1.6957,-0.23961 2.43296,-0.77412 1.14275,-0.81099 1.78786,-2.17492 1.78786,-3.57571 0,-0.84785 -0.23961,-1.71413 -0.77413,-2.45139 -0.81098,-1.14275 -2.13805,-1.78786 -3.48355,-1.78786 -0.84785,0 -1.695699,0.23961 -2.451391,0.77413 -1.142752,0.81098 -1.806286,2.17491 -1.806286,3.55728 0,0.86628 0.258041,1.73256 0.792554,2.46982 0.792554,1.14275 2.138054,1.78785 3.501983,1.78785 z m 0.84785,-0.75569 c -1.21648,0 -2.561978,-0.84785 -3.262375,-1.88001 -0.516082,-0.71883 -0.847848,-1.75099 -0.847848,-2.691 0,-0.88471 0.276472,-1.71413 0.940006,-2.21178 0.36863,-0.27647 0.810986,-0.38706 1.253337,-0.38706 1.21648,0 2.56198,0.84785 3.28081,1.88001 0.49765,0.75569 0.82942,1.76943 0.82942,2.70943 0,0.88471 -0.27647,1.6957 -0.95844,2.19335 -0.36863,0.27647 -0.79255,0.38706 -1.23491,0.38706 z"
         style="font-family:Cantique;-inkscape-font-specification:Cantique"
         id="path28980" />
      <path
         d="m 122.69901,111.25464 c 4.31297,0 7.13299,-2.48825 7.13299,-7.59378 v -2.50668 c 0,-2.414528 0.22117,-3.686301 2.26707,-3.999637 v -0.221178 c -0.0553,0 -1.75099,0.331767 -2.43296,0.331767 -0.77412,0 -0.81098,0 -2.26707,-0.331767 v 0.221178 c 2.0459,0.313336 2.19335,1.603541 2.17492,4.018067 v 2.48825 c 0,4.47886 -2.24865,7.3726 -6.89338,7.3726 -3.35454,0 -5.60318,-2.3408 -5.60318,-7.29887 v -2.50669 c 0,-2.414522 0.0184,-3.760021 2.06433,-4.073357 v -0.221178 c -0.0553,0 -2.06433,0.331767 -2.7463,0.331767 -0.77412,0 -1.17961,0 -2.6357,-0.331767 v 0.221178 c 2.0459,0.313336 2.08276,1.621972 2.06433,4.036497 l -0.0184,2.56198 c 0,5.382 3.00433,7.50162 6.89338,7.50162 z"
         style="font-family:Cantique;-inkscape-font-specification:Cantique"
         id="path28982" />
      <path
         d="m 133.2602,110.97817 c 0.84785,-0.23961 1.54824,-0.33177 2.19335,-0.33177 0.84785,0 1.60354,0.14745 2.45139,0.33177 v -0.22118 c -1.29021,-0.25804 -1.32707,-1.21648 -1.32707,-3.50198 0,-0.0369 -0.0184,-4.18396 3.09649,-4.18396 1.03216,0 1.73256,1.01374 1.73256,2.56198 v 1.08746 c 0,2.41453 0.0369,3.77846 -1.32707,4.0365 v 0.22118 c 0.62667,-0.27647 1.3455,-0.36863 2.02747,-0.36863 1.36393,0 2.58041,0.36863 2.61727,0.36863 v -0.22118 c -1.9906,-0.2949 -2.06433,-1.58511 -2.06433,-3.87061 v -1.58511 c 0,-2.15649 -1.38236,-2.7463 -2.6357,-2.7463 -2.08276,0 -3.0412,1.58511 -3.46512,2.87532 v -2.50669 h -0.3502 c -0.82942,0.62667 -1.71413,0.95844 -2.94904,0.95844 v 0.22118 c 2.00903,0.31333 2.06433,0.2949 2.06433,2.61727 0,2.41453 -0.0184,3.72316 -2.06433,4.0365 z"
         style="font-family:Cantique;-inkscape-font-specification:Cantique"
         id="path28984" />
      <path
         d="m 149.24028,100.9883 c 0.51608,0 0.94,-0.4055 0.94,-0.92158 0,-0.516082 -0.42392,-0.940006 -0.94,-0.940006 -0.51609,0 -0.92158,0.423924 -0.92158,0.940006 0,0.51608 0.40549,0.92158 0.92158,0.92158 z m -2.67257,9.98987 c 1.45609,-0.33177 1.86158,-0.33177 2.6357,-0.33177 0.68197,0 2.691,0.33177 2.7463,0.33177 v -0.22118 c -1.9906,-0.2949 -2.06433,-1.58511 -2.06433,-3.87061 l -0.0184,-3.99964 h -0.3502 c -0.82942,0.62667 -1.71413,0.9953 -2.94904,0.9953 v 0.22118 c 2.00903,0.31333 2.06433,0.2949 2.06433,2.61727 0,2.41453 -0.0184,3.72316 -2.06433,4.0365 z"
         style="font-family:Cantique;-inkscape-font-specification:Cantique"
         id="path28986" />
      <path
         d="m 157.1105,111.77072 4.27611,-8.86555 h -9.08673 z m 0.53451,-1.82472 -3.66787,-6.80122 6.89338,0.0184 z"
         style="font-family:Cantique;-inkscape-font-specification:Cantique"
         id="path28988" />
      <path
         d="m 166.69483,111.16248 c 0.84785,0 1.6957,-0.23961 2.43296,-0.77412 0.66354,-0.55294 0.73726,-0.68197 0.90315,-1.01373 l -0.38707,-0.23961 c -0.20274,0.2949 -0.35019,0.55294 -0.86628,0.88471 -0.36863,0.25804 -0.79255,0.36863 -1.25334,0.36863 -1.19805,0 -2.54355,-0.82942 -3.24394,-1.86158 -0.51608,-0.71883 -0.84785,-1.71413 -0.84785,-2.65414 0,-0.84785 0.27647,-1.65883 0.94001,-2.15648 0.36863,-0.27648 0.81098,-0.38706 1.25334,-0.38706 1.21648,0 2.56198,0.84784 3.2808,1.88001 l -4.14708,2.93061 0.12902,0.16588 5.65847,-3.66787 -0.23961,-0.36863 -0.31334,0.22118 c -0.66353,-1.3455 -1.88001,-1.91688 -3.13335,-1.91688 -0.92158,0 -1.88002,0.31334 -2.65414,0.86628 -1.14275,0.81099 -1.80629,2.13806 -1.80629,3.50199 0,0.84785 0.25805,1.6957 0.79256,2.43296 0.79255,1.14275 2.13805,1.78785 3.50198,1.78785 z"
         style="font-family:Cantique;-inkscape-font-specification:Cantique"
         id="path28990" />
      <path
         d="m 171.67133,110.97817 c 1.45609,-0.33177 1.86158,-0.33177 2.63571,-0.33177 0.68196,0 1.95373,0.33177 2.00903,0.33177 v -0.22118 c -1.30864,-0.25804 -1.32707,-2.15649 -1.32707,-3.52042 0,-0.31333 0.0553,-4.16552 2.82002,-4.16552 0.82942,0 1.45609,0.57138 1.45609,2.15649 l 1.25334,-0.82942 c 0,-1.08746 -1.38236,-1.84315 -2.6357,-1.84315 -2.17492,0 -2.91218,2.41453 -2.91218,3.72317 v -3.35454 h -0.3502 c -0.82942,0.62667 -1.71413,0.95844 -2.94904,0.95844 v 0.22118 c 2.00904,0.31333 2.06433,0.2949 2.06433,2.61727 0,2.41453 -0.0184,3.72316 -2.06433,4.0365 z"
         style="font-family:Cantique;-inkscape-font-specification:Cantique"
         id="path28992" />
      <path
         d="m 184.88666,111.18091 c 1.89844,0 3.88904,-0.92157 3.88904,-2.72786 0,-2.00903 -1.84315,-2.15648 -3.17021,-2.67256 -1.84315,-0.68197 -2.19335,-0.94001 -2.19335,-1.62198 0,-0.47922 0.49765,-1.2902 1.91687,-1.2902 0.82942,0 1.95374,0.71883 1.95374,2.30394 l 1.25334,-0.82942 c -0.47922,-1.25334 -1.91687,-1.78786 -3.17021,-1.78786 -1.36394,0 -2.87532,0.81099 -2.87532,2.32237 0,1.4008 1.56668,2.06433 2.72786,2.43296 0.36863,0.11059 2.37767,0.42392 2.37767,1.62197 0,1.4008 -1.45609,1.93531 -2.28551,1.93531 -1.23491,0 -3.07806,-1.19805 -3.18865,-1.84315 v 1.78785 c 0.73726,0 1.88001,0.36863 2.76473,0.36863 z"
         style="font-family:Cantique;-inkscape-font-specification:Cantique"
         id="path28994" />
      <path
         d="m 193.14393,100.9883 c 0.51608,0 0.94001,-0.4055 0.94001,-0.92158 0,-0.516082 -0.42393,-0.940006 -0.94001,-0.940006 -0.51608,0 -0.92157,0.423924 -0.92157,0.940006 0,0.51608 0.40549,0.92158 0.92157,0.92158 z m -2.67256,9.98987 c 1.45608,-0.33177 1.86158,-0.33177 2.6357,-0.33177 0.68197,0 2.691,0.33177 2.74629,0.33177 v -0.22118 c -1.9906,-0.2949 -2.06432,-1.58511 -2.06432,-3.87061 l -0.0184,-3.99964 h -0.35019 c -0.82942,0.62667 -1.71413,0.9953 -2.94904,0.9953 v 0.22118 c 2.00903,0.31333 2.06432,0.2949 2.06432,2.61727 0,2.41453 -0.0184,3.72316 -2.06432,4.0365 z"
         style="font-family:Cantique;-inkscape-font-specification:Cantique"
         id="path28996" />
      <path
         d="m 200.94045,111.07033 c 1.17962,0 1.76942,-1.23491 1.76942,-2.0459 h -0.18431 c 0,1.03216 -0.79256,1.51138 -1.56668,1.51138 -1.2902,0 -1.25334,-1.49295 -1.25334,-2.21178 v -5.12395 h 2.54355 v -0.62668 h -2.54355 c 0,-0.53451 0.0184,-1.6404 0.18431,-2.23021 h -0.53451 c 0,2.11963 -1.71413,2.63571 -2.94904,2.63571 v 0.22118 h 2.0459 v 5.17925 c 0,1.73256 0.73726,2.691 2.48825,2.691 z"
         style="font-family:Cantique;-inkscape-font-specification:Cantique"
         id="path28998" />
      <path
         d="m 198.8761,126.0367 c 1.45609,-0.33176 2.26708,-0.55294 5.80593,-6.85651 l 8.3679,-16.27502 h -9.08673 l 4.60787,7.70437 -4.55258,8.7181 c -1.06902,2.30393 -3.09649,6.17455 -5.14239,6.48789 z m 10.43223,-16.82796 -3.66787,-6.06396 6.89339,0.0184 z"
         style="font-family:Cantique;-inkscape-font-specification:Cantique"
         id="path29000" />
    </g>
  </g>
</svg>
